{
  "owner": "obsidiansystems",
  "repo": "dependent-sum-template",
  "branch": "tag-recur",
  "rev": "4b85b8fc6fd016ef03f4ea97e31a2a573d30f2ae",
  "sha256": "0pjw6mm2i0dbhh870qhpvfkbdklnmr21z2mkx5g9w3gkh23j3jzp"
}
